\BOOKMARK [1][-]{section.1}{Ejercicios de latex}{}% 1
\BOOKMARK [2][-]{subsection.1.1}{Elementary calculations}{section.1}% 2
\BOOKMARK [2][-]{subsection.1.2}{Creating a matrix}{section.1}% 3
\BOOKMARK [2][-]{subsection.1.3}{Matrix arithmetic}{section.1}% 4
\BOOKMARK [2][-]{subsection.1.4}{Solving systems of liner equations}{section.1}% 5
\BOOKMARK [2][-]{subsection.1.5}{Integrating differential equations}{section.1}% 6
\BOOKMARK [2][-]{subsection.1.6}{Producing graphical output}{section.1}% 7
\BOOKMARK [1][-]{section.2}{Tema de interes}{}% 8
\BOOKMARK [2][-]{subsection.2.1}{datos de la investigacion}{section.2}% 9
\BOOKMARK [1][-]{section.3}{Resumen del articulo}{}% 10
\BOOKMARK [1][-]{section.4}{repositorio}{}% 11
